\relax 
\citation{Leonard:2013}
\citation{Knudsen:1999,Mathews:2002,Dowell:2006,Bernhart:2008}
\citation{Eddy:1994,Sakakibara:1994,Nawrocki:2009}
\citation{Rivas:2001,Washietl:2005}
\citation{Zuker:2003}
\citation{Hofacker:2003}
\citation{Mathews:1999}
\citation{Kazantsev:2005}
\citation{Cannone:2002,Gardner:2011}
\citation{Andronescu:2007}
\citation{Dowell:2004}
\citation{Do:2006}
\citation{Andronescu:2010}
\citation{Hamada:2009}
\@writefile{toc}{\contentsline {section}{\numberline {1}Introduction}{1}}
\newlabel{intro}{{1}{1}}
\citation{Rivas:2012}
\citation{Chomsky:1959}
\citation{Rivas:2013}
\citation{Leontis:2001}
\citation{Durbin:1998}
\citation{Hopcroft:1979}
\citation{Durbin:1998}
\citation{Eddy:1994}
\citation{Rivas:2013}
\@writefile{toc}{\contentsline {section}{\numberline {2}Methods}{2}}
\@writefile{toc}{\contentsline {subsection}{\numberline {2.1}Modeling Secondary Structure with SCFGs}{2}}
\@writefile{toc}{\contentsline {subsubsection}{\numberline {2.1.1}Architecture}{2}}
\citation{Zuker:2003}
\citation{Durbin:1998,Hofacker:1994}
\citation{Dowell:2004,Reeder:2005}
\citation{Do:2006}
\@writefile{toc}{\contentsline {subsubsection}{\numberline {2.1.2}Scoring Scheme}{3}}
\@writefile{toc}{\contentsline {subsubsection}{\numberline {2.1.3}Parameterization}{3}}
\@writefile{toc}{\contentsline {subsubsection}{\numberline {2.1.4}Folding Algorithm}{3}}
\citation{Knudsen:2003}
\@writefile{toc}{\contentsline {subsection}{\numberline {2.2}GRNApred}{4}}
\@writefile{toc}{\contentsline {subsubsection}{\numberline {2.2.1}Training Procedure}{4}}
\@writefile{loa}{\contentsline {algocf}{\numberline {1}{\ignorespaces Training Procedure Pseudocode}}{4}}
\newlabel{alg:1}{{1}{4}}
\@writefile{toc}{\contentsline {subsubsection}{\numberline {2.2.2}Testing Procedure}{4}}
\@writefile{loa}{\contentsline {algocf}{\numberline {2}{\ignorespaces Testing Procedure Pseudocode}}{4}}
\newlabel{alg:2}{{2}{4}}
\@writefile{toc}{\contentsline {subsubsection}{\numberline {2.2.3}Evaluation Measures}{4}}
\citation{Rijsbergen:1979}
\citation{Andronescu:2008}
\citation{Berman:2000}
\citation{Berman:1992}
\@writefile{toc}{\contentsline {section}{\numberline {3}Experimentation}{5}}
\@writefile{toc}{\contentsline {subsection}{\numberline {3.1}Purpose}{5}}
\@writefile{toc}{\contentsline {subsection}{\numberline {3.2}Conditions}{5}}
\@writefile{toc}{\contentsline {subsubsection}{\numberline {3.2.1}Dataset and Ranges}{5}}
\citation{Knudsen:1999}
\citation{Dowell:2004}
\citation{Knudsen:1999}
\citation{Dowell:2004}
\@writefile{lot}{\contentsline {table}{\numberline {1}{\ignorespaces Description of datasets used in training procedure.}}{6}}
\newlabel{tab:1}{{1}{6}}
\@writefile{toc}{\contentsline {subsubsection}{\numberline {3.2.2}TORNADO Grammars}{6}}
\@writefile{lot}{\contentsline {table}{\numberline {2}{\ignorespaces Probabilistic models exploring different structural features. }}{6}}
\newlabel{tab:2}{{2}{6}}
\@writefile{toc}{\contentsline {subsubsection}{\numberline {3.2.3}Hardware}{6}}
\@writefile{toc}{\contentsline {subsubsection}{\numberline {3.2.4}Parameters}{6}}
\citation{Hall:2009}
\@writefile{toc}{\contentsline {section}{\numberline {4}Results}{7}}
\@writefile{toc}{\contentsline {subsection}{\numberline {4.1}Analysis of Sequence Length}{7}}
\@writefile{lot}{\contentsline {table}{\numberline {3}{\ignorespaces Best grammars for length feature.}}{7}}
\newlabel{tab:3}{{3}{7}}
\@writefile{toc}{\contentsline {subsection}{\numberline {4.2}Analysis of RNA type}{7}}
\@writefile{lot}{\contentsline {table}{\numberline {4}{\ignorespaces Significance Test for length feature based discrimination.}}{8}}
\newlabel{tab:6}{{4}{8}}
\@writefile{lof}{\contentsline {figure}{\numberline {1}{\ignorespaces Relative Base Pair Sequence Separation for Small RNA Molecules ($<30$nts)}}{8}}
\newlabel{fig:1}{{1}{8}}
\@writefile{lof}{\contentsline {figure}{\numberline {2}{\ignorespaces Relative Base Pair Sequence Position for Small RNA Molecules ($<30$nts)}}{8}}
\newlabel{fig:2}{{2}{8}}
\@writefile{lot}{\contentsline {table}{\numberline {5}{\ignorespaces Best grammars for RNA type feature.}}{8}}
\newlabel{tab:4}{{5}{8}}
\@writefile{lot}{\contentsline {table}{\numberline {6}{\ignorespaces Significance Test for RNA type feature based discrimination.}}{8}}
\newlabel{tab:7}{{6}{8}}
\@writefile{lof}{\contentsline {figure}{\numberline {3}{\ignorespaces Relative Base Pair Sequence Separation for Ribozyme RNA(left) and Ribosomal RNA(right)}}{9}}
\newlabel{fig:3}{{3}{9}}
\@writefile{lof}{\contentsline {figure}{\numberline {4}{\ignorespaces Relative Base Pair Sequence Position for Ribozyme RNA(left) and Ribosomal RNA(right)}}{9}}
\newlabel{fig:4}{{4}{9}}
\@writefile{lot}{\contentsline {table}{\numberline {7}{\ignorespaces Best grammars for GC content feature.}}{9}}
\newlabel{tab:5}{{7}{9}}
\@writefile{toc}{\contentsline {subsection}{\numberline {4.3}Analysis of GC Content}{9}}
\@writefile{lot}{\contentsline {table}{\numberline {8}{\ignorespaces Significance Test for GC content feature based discrimination.}}{9}}
\newlabel{tab:8}{{8}{9}}
\@writefile{lof}{\contentsline {figure}{\numberline {5}{\ignorespaces Relative Base Pair Sequence Separation for $33\%$ to $54\%$ (left) and $55\%$ to $59\%$ (right) of GC Content Feature}}{9}}
\newlabel{fig:5}{{5}{9}}
\@writefile{lof}{\contentsline {figure}{\numberline {6}{\ignorespaces Relative Base Pair Sequence Position for GC $60\%$ to $65\%$ (left) and $66\%$ to $80\%$ (right) of Content Feature}}{9}}
\newlabel{fig:6}{{6}{9}}
\@writefile{toc}{\contentsline {section}{\numberline {5}Conclusions}{9}}
\bibstyle{spphys}
\bibdata{bib_main}
\bibcite{Leonard:2013}{1}
\bibcite{Knudsen:1999}{2}
\bibcite{Mathews:2002}{3}
\bibcite{Dowell:2006}{4}
\bibcite{Bernhart:2008}{5}
\bibcite{Eddy:1994}{6}
\bibcite{Sakakibara:1994}{7}
\bibcite{Nawrocki:2009}{8}
\bibcite{Rivas:2001}{9}
\bibcite{Washietl:2005}{10}
\bibcite{Zuker:2003}{11}
\bibcite{Hofacker:2003}{12}
\bibcite{Mathews:1999}{13}
\bibcite{Kazantsev:2005}{14}
\bibcite{Cannone:2002}{15}
\bibcite{Gardner:2011}{16}
\bibcite{Andronescu:2007}{17}
\bibcite{Dowell:2004}{18}
\bibcite{Do:2006}{19}
\bibcite{Andronescu:2010}{20}
\bibcite{Hamada:2009}{21}
\bibcite{Rivas:2012}{22}
\bibcite{Chomsky:1959}{23}
\bibcite{Rivas:2013}{24}
\bibcite{Leontis:2001}{25}
\bibcite{Durbin:1998}{26}
\bibcite{Hopcroft:1979}{27}
\bibcite{Hofacker:1994}{28}
\bibcite{Reeder:2005}{29}
\bibcite{Knudsen:2003}{30}
\bibcite{Rijsbergen:1979}{31}
\bibcite{Andronescu:2008}{32}
\bibcite{Berman:2000}{33}
\bibcite{Berman:1992}{34}
\bibcite{Hall:2009}{35}
