\relax 
\@writefile{loa}{\contentsline {algocf}{\numberline {1}{\ignorespaces Training Procedure Pseudocode\relax }}{26}}
\providecommand*\caption@xref[2]{\@setref\relax\@undefined{#1}}
\newlabel{alg:1}{{1}{26}}
\@writefile{loa}{\contentsline {algocf}{\numberline {2}{\ignorespaces Testing Procedure Pseudocode\relax }}{26}}
\newlabel{alg:2}{{2}{26}}
\@setckpt{algorithms}{
\setcounter{page}{27}
\setcounter{equation}{0}
\setcounter{enumi}{3}
\setcounter{enumii}{0}
\setcounter{enumiii}{0}
\setcounter{enumiv}{0}
\setcounter{footnote}{0}
\setcounter{mpfootnote}{0}
\setcounter{part}{0}
\setcounter{chapter}{5}
\setcounter{section}{0}
\setcounter{subsection}{0}
\setcounter{subsubsection}{0}
\setcounter{paragraph}{0}
\setcounter{subparagraph}{0}
\setcounter{figure}{0}
\setcounter{table}{0}
\setcounter{parentequation}{0}
\setcounter{AlgoLine}{0}
\setcounter{algocfline}{2}
\setcounter{algocfproc}{2}
\setcounter{algocf}{2}
\setcounter{ContinuedFloat}{0}
\setcounter{subfigure}{0}
\setcounter{subtable}{0}
}
