\relax 
\@writefile{toc}{\contentsline {chapter}{\numberline {3}Experimentation}{15}}
\@writefile{lof}{\addvspace {10\p@ }}
\@writefile{lot}{\addvspace {10\p@ }}
\@writefile{loa}{\addvspace {10\p@ }}
\@writefile{toc}{\contentsline {section}{\numberline {3.1}Purpose}{15}}
\citation{Andronescu:2008}
\citation{Berman:2000}
\citation{Berman:1992}
\@writefile{toc}{\contentsline {section}{\numberline {3.2}Conditions}{16}}
\@writefile{toc}{\contentsline {subsection}{\numberline {3.2.1}Dataset and Ranges}{16}}
\citation{Knudsen:1999}
\citation{Dowell:2004}
\@writefile{toc}{\contentsline {subsection}{\numberline {3.2.2}TORNADO Grammars}{17}}
\@writefile{toc}{\contentsline {subsection}{\numberline {3.2.3}Hardware}{18}}
\@writefile{toc}{\contentsline {subsection}{\numberline {3.2.4}Parameters}{18}}
\@setckpt{experimentation}{
\setcounter{page}{19}
\setcounter{equation}{0}
\setcounter{enumi}{3}
\setcounter{enumii}{0}
\setcounter{enumiii}{0}
\setcounter{enumiv}{0}
\setcounter{footnote}{0}
\setcounter{mpfootnote}{0}
\setcounter{part}{0}
\setcounter{chapter}{3}
\setcounter{section}{2}
\setcounter{subsection}{4}
\setcounter{subsubsection}{0}
\setcounter{paragraph}{0}
\setcounter{subparagraph}{0}
\setcounter{figure}{0}
\setcounter{table}{0}
\setcounter{parentequation}{0}
\setcounter{AlgoLine}{0}
\setcounter{algocfline}{0}
\setcounter{algocfproc}{0}
\setcounter{algocf}{0}
\setcounter{ContinuedFloat}{0}
\setcounter{subfigure}{0}
\setcounter{subtable}{0}
}
