\relax 
\@writefile{lof}{\contentsline {figure}{\numberline {5.1}{\ignorespaces Verbatim copy of the file "basic\_grammar.grm".\relax }}{36}}
\newlabel{fig:1}{{5.1}{36}}
\@writefile{lof}{\contentsline {figure}{\numberline {5.2}{\ignorespaces Training procedure scheme.\relax }}{37}}
\newlabel{fig:2}{{5.2}{37}}
\@writefile{lof}{\contentsline {figure}{\numberline {5.3}{\ignorespaces Testing procedure scheme.\relax }}{37}}
\newlabel{fig:3}{{5.3}{37}}
\@setckpt{figures_methods}{
\setcounter{page}{38}
\setcounter{equation}{0}
\setcounter{enumi}{3}
\setcounter{enumii}{0}
\setcounter{enumiii}{0}
\setcounter{enumiv}{0}
\setcounter{footnote}{0}
\setcounter{mpfootnote}{0}
\setcounter{part}{0}
\setcounter{chapter}{5}
\setcounter{section}{0}
\setcounter{subsection}{0}
\setcounter{subsubsection}{0}
\setcounter{paragraph}{0}
\setcounter{subparagraph}{0}
\setcounter{figure}{3}
\setcounter{table}{8}
\setcounter{parentequation}{0}
\setcounter{AlgoLine}{0}
\setcounter{algocfline}{2}
\setcounter{algocfproc}{2}
\setcounter{algocf}{2}
\setcounter{ContinuedFloat}{0}
\setcounter{subfigure}{0}
\setcounter{subtable}{0}
}
