\relax 
\@writefile{lof}{\contentsline {figure}{\numberline {5.4}{\ignorespaces Relative Base Pair Sequence Separation for Length Feature\relax }}{38}}
\newlabel{fig:4}{{5.4}{38}}
\@writefile{lof}{\contentsline {figure}{\numberline {5.5}{\ignorespaces Relative Base Pair Sequence Separation for Length Feature\relax }}{38}}
\newlabel{fig:5}{{5.5}{38}}
\@writefile{lof}{\contentsline {figure}{\numberline {5.6}{\ignorespaces Relative Base Pair Sequence Position for Length Feature\relax }}{39}}
\newlabel{fig:6}{{5.6}{39}}
\@writefile{lof}{\contentsline {figure}{\numberline {5.7}{\ignorespaces Relative Base Pair Sequence Position for Length Feature\relax }}{39}}
\newlabel{fig:7}{{5.7}{39}}
\@writefile{lof}{\contentsline {figure}{\numberline {5.8}{\ignorespaces Relative Base Pair Sequence Separation for Type Feature\relax }}{40}}
\newlabel{fig:8}{{5.8}{40}}
\@writefile{lof}{\contentsline {figure}{\numberline {5.9}{\ignorespaces Relative Base Pair Sequence Separation for Type Feature\relax }}{40}}
\newlabel{fig:9}{{5.9}{40}}
\@writefile{lof}{\contentsline {figure}{\numberline {5.10}{\ignorespaces Relative Base Pair Sequence Position for Type Feature\relax }}{41}}
\newlabel{fig:10}{{5.10}{41}}
\@writefile{lof}{\contentsline {figure}{\numberline {5.11}{\ignorespaces Relative Base Pair Sequence Position for Type Feature\relax }}{41}}
\newlabel{fig:11}{{5.11}{41}}
\@writefile{lof}{\contentsline {figure}{\numberline {5.12}{\ignorespaces Relative Base Pair Sequence Separation for GC content Feature\relax }}{42}}
\newlabel{fig:12}{{5.12}{42}}
\@writefile{lof}{\contentsline {figure}{\numberline {5.13}{\ignorespaces Relative Base Pair Sequence Separation for GC content Feature\relax }}{42}}
\newlabel{fig:13}{{5.13}{42}}
\@writefile{lof}{\contentsline {figure}{\numberline {5.14}{\ignorespaces Relative Base Pair Sequence Position for GC content Feature\relax }}{43}}
\newlabel{fig:14}{{5.14}{43}}
\@writefile{lof}{\contentsline {figure}{\numberline {5.15}{\ignorespaces Relative Base Pair Sequence Position for GC content Feature\relax }}{43}}
\newlabel{fig:15}{{5.15}{43}}
\@setckpt{figures_results}{
\setcounter{page}{44}
\setcounter{equation}{0}
\setcounter{enumi}{3}
\setcounter{enumii}{0}
\setcounter{enumiii}{0}
\setcounter{enumiv}{0}
\setcounter{footnote}{0}
\setcounter{mpfootnote}{0}
\setcounter{part}{0}
\setcounter{chapter}{5}
\setcounter{section}{0}
\setcounter{subsection}{0}
\setcounter{subsubsection}{0}
\setcounter{paragraph}{0}
\setcounter{subparagraph}{0}
\setcounter{figure}{15}
\setcounter{table}{8}
\setcounter{parentequation}{0}
\setcounter{AlgoLine}{0}
\setcounter{algocfline}{2}
\setcounter{algocfproc}{2}
\setcounter{algocf}{2}
\setcounter{ContinuedFloat}{0}
\setcounter{subfigure}{2}
\setcounter{subtable}{0}
}
