\relax 
\citation{Leonard:2013}
\citation{Knudsen:1999}
\citation{Mathews:2002}
\citation{Dowell:2006}
\citation{Bernhart:2008}
\citation{Eddy:1994}
\citation{Sakakibara:1994}
\citation{Nawrocki:2009}
\citation{Rivas:2001}
\citation{Washietl:2005}
\citation{Zuker:2003}
\citation{Hofacker:2003}
\citation{Mathews:1999}
\citation{Kazantsev:2005}
\citation{Cannone:2002}
\citation{Gardner:2011}
\citation{Andronescu:2007}
\citation{Dowell:2004}
\citation{Do:2006}
\citation{Andronescu:2010}
\citation{Hamada:2009}
\@writefile{toc}{\contentsline {chapter}{\numberline {1}Introduction}{3}}
\@writefile{lof}{\addvspace {10\p@ }}
\@writefile{lot}{\addvspace {10\p@ }}
\@writefile{loa}{\addvspace {10\p@ }}
\newlabel{intro}{{1}{3}}
\@setckpt{introduction}{
\setcounter{page}{5}
\setcounter{equation}{0}
\setcounter{enumi}{0}
\setcounter{enumii}{0}
\setcounter{enumiii}{0}
\setcounter{enumiv}{0}
\setcounter{footnote}{0}
\setcounter{mpfootnote}{0}
\setcounter{part}{0}
\setcounter{chapter}{1}
\setcounter{section}{0}
\setcounter{subsection}{0}
\setcounter{subsubsection}{0}
\setcounter{paragraph}{0}
\setcounter{subparagraph}{0}
\setcounter{figure}{0}
\setcounter{table}{0}
\setcounter{parentequation}{0}
\setcounter{AlgoLine}{0}
\setcounter{algocfline}{0}
\setcounter{algocfproc}{0}
\setcounter{algocf}{0}
\setcounter{ContinuedFloat}{0}
\setcounter{subfigure}{0}
\setcounter{subtable}{0}
}
