\relax 
\@input{frontespizio.aux}
\select@language{english}
\@writefile{toc}{\select@language{english}}
\@writefile{lof}{\select@language{english}}
\@writefile{lot}{\select@language{english}}
\@input{abstract.aux}
\@input{introduction.aux}
\@input{methods.aux}
\@input{experimentation.aux}
\@input{results.aux}
\@input{conclusions.aux}
\@input{algorithms.aux}
\@input{tables.aux}
\@input{figures_methods.aux}
\@input{figures_results.aux}
\bibstyle{style_bib}
\bibdata{bib_main}
\bibcite{Leonard:2013}{1}
\bibcite{Knudsen:1999}{2}
\bibcite{Mathews:2002}{3}
\bibcite{Dowell:2006}{4}
\bibcite{Bernhart:2008}{5}
\bibcite{Eddy:1994}{6}
\bibcite{Sakakibara:1994}{7}
\bibcite{Nawrocki:2009}{8}
\bibcite{Rivas:2001}{9}
\bibcite{Washietl:2005}{10}
\bibcite{Zuker:2003}{11}
\bibcite{Hofacker:2003}{12}
\bibcite{Mathews:1999}{13}
\bibcite{Kazantsev:2005}{14}
\bibcite{Cannone:2002}{15}
\bibcite{Gardner:2011}{16}
\bibcite{Andronescu:2007}{17}
\bibcite{Dowell:2004}{18}
\bibcite{Do:2006}{19}
\bibcite{Andronescu:2010}{20}
\bibcite{Hamada:2009}{21}
\bibcite{Rivas:2012}{22}
\bibcite{Chomsky:1959}{23}
\bibcite{Rivas:2013}{24}
\bibcite{Leontis:2001}{25}
\bibcite{Durbin:1998}{26}
\bibcite{Hopcroft:1979}{27}
\bibcite{Hofacker:1994}{28}
\bibcite{Reeder:2005}{29}
\bibcite{Knudsen:2003}{30}
\bibcite{Rijsbergen:1979}{31}
\bibcite{Andronescu:2008}{32}
\bibcite{Berman:2000}{33}
\bibcite{Berman:1992}{34}
\bibcite{Hall:2009}{35}
