\relax 
\citation{Rivas:2012}
\citation{Chomsky:1959}
\@writefile{toc}{\contentsline {chapter}{\numberline {2}Methods}{5}}
\@writefile{lof}{\addvspace {10\p@ }}
\@writefile{lot}{\addvspace {10\p@ }}
\@writefile{loa}{\addvspace {10\p@ }}
\newlabel{sec:1}{{2}{5}}
\@writefile{toc}{\contentsline {section}{\numberline {2.1}Modeling Secondary Structure \\with SCFGs}{5}}
\newlabel{sec:1.1}{{2.1}{5}}
\citation{Rivas:2013}
\citation{Leontis:2001}
\citation{Durbin:1998}
\citation{Hopcroft:1979}
\@writefile{toc}{\contentsline {subsection}{\numberline {2.1.1}Architecture}{6}}
\newlabel{sec:3}{{2.1.1}{6}}
\citation{Durbin:1998}
\citation{Eddy:1994}
\citation{Rivas:2013}
\@writefile{toc}{\contentsline {subsection}{\numberline {2.1.2}Scoring Scheme}{8}}
\newlabel{sec:4}{{2.1.2}{8}}
\citation{Zuker:2003}
\citation{Durbin:1998}
\citation{Hofacker:1994}
\citation{Dowell:2004}
\citation{Reeder:2005}
\@writefile{toc}{\contentsline {subsection}{\numberline {2.1.3}Parameterization}{9}}
\newlabel{sec:5}{{2.1.3}{9}}
\@writefile{toc}{\contentsline {subsection}{\numberline {2.1.4}Folding Algorithm}{9}}
\newlabel{sec:6}{{2.1.4}{9}}
\citation{Do:2006}
\citation{Knudsen:2003}
\@writefile{toc}{\contentsline {section}{\numberline {2.2}GRNApred}{11}}
\newlabel{sec:7}{{2.2}{11}}
\@writefile{toc}{\contentsline {subsection}{\numberline {2.2.1}Training Procedure}{11}}
\newlabel{sec:8}{{2.2.1}{11}}
\citation{Rijsbergen:1979}
\@writefile{toc}{\contentsline {subsection}{\numberline {2.2.2}Testing Procedure}{12}}
\newlabel{sec:9}{{2.2.2}{12}}
\@writefile{toc}{\contentsline {section}{\numberline {2.3}Evaluation Measures}{12}}
\newlabel{sec:10}{{2.3}{12}}
\@setckpt{methods}{
\setcounter{page}{14}
\setcounter{equation}{9}
\setcounter{enumi}{3}
\setcounter{enumii}{0}
\setcounter{enumiii}{0}
\setcounter{enumiv}{0}
\setcounter{footnote}{0}
\setcounter{mpfootnote}{0}
\setcounter{part}{0}
\setcounter{chapter}{2}
\setcounter{section}{3}
\setcounter{subsection}{0}
\setcounter{subsubsection}{0}
\setcounter{paragraph}{0}
\setcounter{subparagraph}{0}
\setcounter{figure}{0}
\setcounter{table}{0}
\setcounter{parentequation}{0}
\setcounter{AlgoLine}{0}
\setcounter{algocfline}{0}
\setcounter{algocfproc}{0}
\setcounter{algocf}{0}
\setcounter{ContinuedFloat}{0}
\setcounter{subfigure}{0}
\setcounter{subtable}{0}
}
