\relax 
\citation{Knudsen:1999}
\citation{Dowell:2004}
\@writefile{lot}{\contentsline {table}{\numberline {5.1}{\ignorespaces Description of datasets used in training procedure.\relax }}{28}}
\newlabel{tab:1}{{5.1}{28}}
\@writefile{lot}{\contentsline {table}{\numberline {5.2}{\ignorespaces Probabilistic models exploring different structural features. \relax }}{29}}
\newlabel{tab:2}{{5.2}{29}}
\@writefile{lot}{\contentsline {table}{\numberline {5.3}{\ignorespaces Best grammars for length feature.\relax }}{30}}
\newlabel{tab:3}{{5.3}{30}}
\@writefile{lot}{\contentsline {table}{\numberline {5.4}{\ignorespaces Best grammars for RNA type feature.\relax }}{30}}
\newlabel{tab:4}{{5.4}{30}}
\@writefile{lot}{\contentsline {table}{\numberline {5.5}{\ignorespaces Best grammars for GC content feature.\relax }}{30}}
\newlabel{tab:5}{{5.5}{30}}
\@writefile{lot}{\contentsline {table}{\numberline {5.6}{\ignorespaces Significance Test for length feature based discrimination.\relax }}{31}}
\newlabel{tab:6}{{5.6}{31}}
\@writefile{lot}{\contentsline {table}{\numberline {5.7}{\ignorespaces Significance Test for RNA type feature based discrimination.\relax }}{32}}
\newlabel{tab:7}{{5.7}{32}}
\@writefile{lot}{\contentsline {table}{\numberline {5.8}{\ignorespaces Significance Test for GC content feature based discrimination.\relax }}{33}}
\newlabel{tab:8}{{5.8}{33}}
\@setckpt{tables}{
\setcounter{page}{34}
\setcounter{equation}{0}
\setcounter{enumi}{3}
\setcounter{enumii}{0}
\setcounter{enumiii}{0}
\setcounter{enumiv}{0}
\setcounter{footnote}{0}
\setcounter{mpfootnote}{0}
\setcounter{part}{0}
\setcounter{chapter}{5}
\setcounter{section}{0}
\setcounter{subsection}{0}
\setcounter{subsubsection}{0}
\setcounter{paragraph}{0}
\setcounter{subparagraph}{0}
\setcounter{figure}{0}
\setcounter{table}{8}
\setcounter{parentequation}{0}
\setcounter{AlgoLine}{0}
\setcounter{algocfline}{2}
\setcounter{algocfproc}{2}
\setcounter{algocf}{2}
\setcounter{ContinuedFloat}{0}
\setcounter{subfigure}{0}
\setcounter{subtable}{0}
}
